Place,Name,Sex,Age,Equipment,Division,BodyweightKg,WeightClassKg,Squat1Kg,Squat2Kg,Squat3Kg,Best3SquatKg,Bench1Kg,Bench2Kg,Bench3Kg,Best3BenchKg,Deadlift1Kg,Deadlift2Kg,Deadlift3Kg,Best3DeadliftKg,TotalKg,Event,BirthDate
1,Jodi Kay,F,19,Raw,FR-Jr,50.5,52,90,97.5,-105,97.5,40,45,50,50,100,110,117.5,117.5,265,SBD,
2,Niamh Mulley,F,21,Raw,FR-Jr,51,52,80,87.5,-95,87.5,42.5,47.5,50,50,115,125,-132.5,125,262.5,SBD,
1,Suki Moss,F,23,Raw,FR-Jr,56.4,57,105,110,116,116,70,75,80,80,125,135,140,140,336,SBD,
2,Maryam Duha,F,22,Raw,FR-Jr,55.7,57,77.5,-85,85,85,45,-50,50,50,102.5,110,115,115,250,SBD,
1,Yasmin Burt,F,19,Raw,FR-Jr,62.5,63,112.5,120,125,125,80,87.5,90,90,130,137.5,145,145,360,SBD,
2,Sophie Fowler,F,20,Raw,FR-Jr,61,63,105,112.5,117.5,117.5,47.5,52.5,55,55,125,135,142.5,142.5,315,SBD,
3,Holly Gordge,F,20,Raw,FR-Jr,61.8,63,105,112.5,115,115,45,50,-57.5,50,107.5,-112.5,112.5,112.5,277.5,SBD,
4,Sarah Royle,F,20,Raw,FR-Jr,61.9,63,80,90,-100,90,32.5,37.5,-42.5,37.5,80,92.5,100,100,227.5,SBD,
1,Mareva Flandrin,F,23,Raw,FR-Jr,67.9,69,125,130,135,135,75,-80,80,80,135,145,-152.5,145,360,SBD,
2,Ellie Robins,F,20,Raw,FR-Jr,66.2,69,125,130,135,135,72.5,-75,-75,72.5,135,145,-147.5,145,352.5,SBD,
3,Sharon Statish,F,22,Raw,FR-Jr,65.5,69,107.5,115,120,120,70,75,80,80,130,140,150,150,350,SBD,
4,Niamh Underhill,F,23,Raw,FR-Jr,68.4,69,107.5,115,-120,115,60,65,-70,65,125,135,140,140,320,SBD,
5,Clodagh Murray,F,21,Raw,FR-Jr,68.2,69,107.5,-115,-115,107.5,45,47.5,-50,47.5,150,160,-170,160,315,SBD,
6,Abby Darbyshire,F,20,Raw,FR-Jr,67.4,69,80,87.5,-95,87.5,45,47.5,50,50,100,110,117.5,117.5,255,SBD,
1,Ebony Harker,F,23,Raw,FR-Jr,75.3,76,100,107.5,112.5,112.5,47.5,52.5,57.5,57.5,125,135,142.5,142.5,312.5,SBD,
1,Rosie Hopkins,F,26,Raw,FR-O,55.3,57,87.5,92.5,-97.5,92.5,50,52.5,55,55,130,137.5,-142.5,137.5,285,SBD,
1,Gemma Smith,F,21,Raw,FR-Jr,62.7,63,92.5,100,-105,100,55,60,62.5,62.5,120,130,135,135,297.5,SBD,
1,Ashleigh Sutton,F,21,Raw,FR-Jr,74.7,76,135,145,152.5,152.5,65,70,-75,70,165,175,182.5,182.5,405,SBD,
2,Kate Mitchell-Roggeveen,F,21,Raw,FR-Jr,73.8,76,135,145,150,150,45,50,55,55,135,145,152.5,152.5,357.5,SBD,
1,Zakariae Ouahi,M,20,Raw,MR-Jr,65,66,150,-162.5,-162.5,150,92.5,97.5,-100,97.5,212.5,225,-235,225,472.5,SBD,
2,Sirjan Rana,M,20,Raw,MR-Jr,63.5,66,135,140,145,145,95,100,-102.5,100,205,-215,-215,205,450,SBD,
3,Kai-Chen Hsu,M,19,Raw,MR-Jr,64.8,66,145,155,-162.5,155,90,97.5,102.5,102.5,180,192.5,-195,192.5,450,SBD,
4,Sebastion Smith,M,20,Raw,MR-Jr,65.2,66,130,140,150,150,85,92.5,95,95,155,170,180,180,425,SBD,
5,Aamir Aziz,M,22,Raw,MR-Jr,65.4,66,105,112.5,117.5,117.5,75,80,85,85,155,165,175,175,377.5,SBD,
1,Jayesh Utchanah,M,21,Raw,MR-Jr,72.8,74,190,200,205,205,120,125,-130,125,230,245,255,255,585,SBD,
2,William Noble,M,19,Raw,MR-Jr,73.6,74,180,190,195,195,115,120,-125,120,205,215,222.5,222.5,537.5,SBD,
3,Kairo Dodd,M,19,Raw,MR-Jr,73.1,74,175,190,-197.5,190,125,130,132.5,132.5,195,205,212.5,212.5,535,SBD,
DQ,Ethan Beckford,M,21,Raw,MR-Jr,73.4,74,155,162.5,-170,162.5,102.5,107.5,-110,107.5,,,,,,SBD,
1,Paul Mavro,M,18,Raw,MR-Sj,58.8,59,150,160,-170,160,-80,90,-100,90,180,195,-205,195,445,SBD,
1,Toby Turner,M,21,Raw,MR-O,116.9,120,195,210,220,220,135,145,-152.5,145,230,245,255,255,620,SBD,
1,Christopher Fear,M,22,Raw,MR-Jr,98.6,105,205,220,232.5,232.5,130,140,145,145,240,255,270,270,647.5,SBD,
1,Josh New,M,25,Raw,MR-O,90,93,180,195,200,200,130,140,145,145,210,230,245,245,590,SBD,
1,Chomba Mumba,M,20,Raw,MR-Jr,82.6,83,210,222.5,227.5,227.5,142.5,150,155,155,260,277.5,-287.5,277.5,660,SBD,
2,Adam Essex,M,23,Raw,MR-Jr,77.8,83,200,210,215,215,155,157.5,-160,157.5,237.5,247.5,255,255,627.5,SBD,
3,Sam Taylor #6,M,20,Raw,MR-Jr,78.9,83,165,175,-185,175,117.5,125,130,130,230,242.5,-252.5,242.5,547.5,SBD,
4,Erik Mills,M,21,Raw,MR-Jr,81.3,83,155,167.5,172.5,172.5,100,-105,-105,100,212.5,222.5,232.5,232.5,505,SBD,
5,William Insley,M,19,Raw,MR-Jr,79.8,83,135,147.5,157.5,157.5,102.5,110,115,115,182.5,197.5,205,205,477.5,SBD,
6,Pratik Chawala,M,21,Raw,MR-Jr,78.9,83,140,152.5,157.5,157.5,95,102.5,107.5,107.5,182.5,195,207.5,207.5,472.5,SBD,
7,Luke Kujo,M,18,Raw,MR-Jr,81.6,83,115,125,132.5,132.5,77.5,-85,85,85,170,185,192.5,192.5,410,SBD,
8,Finn Miller,M,19,Raw,MR-Jr,76.1,83,115,122.5,130,130,70,75,80,80,130,140,150,150,360,SBD,
1,Joseph Eaton,M,22,Raw,MR-Jr,92.6,93,210,230,240,240,130,137.5,140,140,240,260,-290,260,640,SBD,
2,Jack Taylor #2,M,21,Raw,MR-Jr,88.7,93,165,175,180,180,215,225,-233,225,185,205,220,220,625,SBD,
3,Martin Enitan,M,20,Raw,MR-Jr,92.2,93,207.5,217.5,225,225,105,110,115,115,220,232.5,242.5,242.5,582.5,SBD,
4,Ethan McDerment,M,19,Raw,MR-Jr,92.5,93,172.5,185,195,195,127.5,135,140,140,235,247.5,-257.5,247.5,582.5,SBD,
5,Samir Sultani,M,20,Raw,MR-Jr,89.8,93,202.5,215,-220,215,100,105,110,110,230,245,-257.5,245,570,SBD,
6,Thomas Rhodes-May,M,19,Raw,MR-Jr,85.3,93,162.5,172.5,182.5,182.5,120,125,130,130,225,237.5,250,250,562.5,SBD,
7,Tom Xavier Smith,M,22,Raw,MR-Jr,91.1,93,175,187.5,200,200,102.5,110,117.5,117.5,205,220,237.5,237.5,555,SBD,
8,Chris Spurgeon,M,20,Raw,MR-Jr,91.4,93,185,192.5,200,200,100,107.5,112.5,112.5,212.5,225,-235,225,537.5,SBD,
9,Alexander Holness,M,23,Raw,MR-Jr,93,93,167.5,180,187.5,187.5,-112.5,-115,115,115,207.5,220,230,230,532.5,SBD,
1,Jamie Foord,M,19,Raw,MR-Jr,101.7,105,245,255,265,265,150,157.5,165,165,270,285,300,300,730,SBD,
2,Noah Miles,M,21,Raw,MR-Jr,102.5,105,245,260,270,270,147.5,155,162.5,162.5,275,292.5,-302.5,292.5,725,SBD,
3,Theo Weatherall,M,20,Raw,MR-Jr,98.5,105,195,205,-212.5,205,107.5,115,122.5,122.5,245,260,-270,260,587.5,SBD,
1,Finn Wood,M,22,Raw,MR-Jr,117.1,120,240,255,265,265,147.5,157.5,162.5,162.5,260,272.5,280,280,707.5,SBD,
2,Conner Scarfe,M,20,Raw,MR-Jr,109.7,120,235,-255,260,260,130,137.5,145,145,245,270,285,285,690,SBD,
3,Harry Booth,M,21,Raw,MR-Jr,115.4,120,205,215,225,225,137.5,145,150,150,250,262.5,270,270,645,SBD,
1,Haoran Zhang,M,23,Raw,MR-Jr,131.8,120+,265,-280,280,280,145,-152.5,-155,145,280,-300,-300,280,705,SBD,
